{
  "users": [
    {
      "name": "Long",
      "phone": "0123456890",
      "id": "VIKxIb4H"
    },
    {
      "name": "long",
      "phone": "",
      "id": "ncsWnHNM"
    },
    {
      "name": "long",
      "phone": "0123456890",
      "id": "o1gI5zXS"
    },
    {
      "name": "yasuo",
      "phone": "234",
      "id": "bHGZvdRz"
    }
  ]
}